KEK83    20.  20.    0.  10.  0.   180.
KEK114   20.   0.  45.   0. 10.     90.
KEKFE65 8.5   8.5  505.  0.  0.    180.
KEK94    20.   0. 1060.  10.  0.    90.
KEK101    0.   0. 1100.   0. 10.     0.
KEK113   20.   0. 1210.   0. 10.   180.
KEK115    0.   0. 1170.  10.  0.    90.
