KEK83             0          0   0. 0. 0. 0.
KEK114        -4.93       24.9   0. 0. 0. 0.
KEKFE65       2.739      9.695   0. 0. 0. 0.
KEK94        -2.333      23.92   0. 0. 0. 0.
KEK101        4.349      6.505   0. 0. 0. 0.
KEK115        37.18      4.303   0. 0. 0. 0.
KEK113        2.047       19.1   0. 0. 0. 0.







